Numbers – R Learning
…
parse_number(x)

[1] 1234 3513   59

class(parse_number(x))

[1] "numeric"

Counts

count() is great for quick exploration and checks during analysis:

flights |> count(dest)

# A tibble: 105 × 2
   dest      n
   <chr> <int>
 1 ABQ     254
 2 ACK     265
 3 ALB     439
 4 ANC       8
 5 ATL   17215
 6 AUS    2439
 7 AVL     275
 8 BDL     443
 9 BGR     375
10 BHM     297
# ℹ 95 more rows

# Most common values can be retrieved by sort = TRUE:
flights |> count(dest, sort = TRUE)

# A tibble: 105 × 2
   dest      n
   <chr> <int>
 1 ORD   17283
 2 ATL   17215
 3 LAX   16174
 4 BOS   15508
 5 MCO   14082
 6 CLT   14064
 7 SFO   13331
 8 FLL   12055
 9 MIA   11728
10 DCA    9705
# ℹ 95 more rows

# Can perform same computation by hand:
flights |>
  group_by(dest) |>
  summarize(
    n = n(),
    delay = mean(arr_delay, na.rm = TRUE),
    .groups = "drop"
  ) |> 
  arrange(desc(n))

# A tibble: 105 × 3
   dest      n  delay
   <chr> <int>  <dbl>
 1 ORD   17283  5.88 
 2 ATL   17215 11.3  
 3 LAX   16174  0.547
 4 BOS   15508  2.91 
 5 MCO   14082  5.45 
 6 CLT   14064  7.36 
 7 SFO   13331  2.67 
 8 FLL   12055  8.08 
 9 MIA   11728  0.299
10 DCA    9705  9.07 
# ℹ 95 more rows

# n() takes no argument, accesses information about current 

# If we want to see all values: |> print(n = Inf)

Couple variants of n() and count(): + n_distinct(): counts number of distinct (unique) values of one or more variables

flights |>
  group_by(dest) |>
  summarize(
    carriers = n_distinct(carrier)
  ) |>
  arrange(desc(carriers))

# A tibble: 105 × 2
   dest  carriers
   <chr>    <int>
 1 ATL          7
 2 BOS          7
 3 CLT          7
 4 ORD          7
 5 TPA          7
 6 AUS          6
 7 DCA          6
 8 DTW          6
 9 IAD          6
10 MSP          6
# ℹ 95 more rows

A weigthed count is a sum

flights |>
  group_by(tailnum) |>
  summarize(miles = sum(distance))

# A tibble: 4,044 × 2
   tailnum  miles
   <chr>    <dbl>
 1 D942DN    3418
 2 N0EGMQ  250866
 3 N10156  115966
 4 N102UW   25722
 5 N103US   24619
 6 N104UW   25157
 7 N10575  150194
 8 N105UW   23618
 9 N107US   21677
10 N108UW   32070
# ℹ 4,034 more rows

# Thus count has wt argument:
flights |>
  count(tailnum, wt = distance)

# A tibble: 4,044 × 2
   tailnum      n
   <chr>    <dbl>
 1 D942DN    3418
 2 N0EGMQ  250866
 3 N10156  115966
 4 N102UW   25722
 5 N103US   24619
 6 N104UW   25157
 7 N10575  150194
 8 N105UW   23618
 9 N107US   21677
10 N108UW   32070
# ℹ 4,034 more rows

Can count missing values - combining sum() and is.na()

flights |>
  group_by(dest) |>
  summarize(n_cancelled = sum(is.na(dep_time))) |>
  arrange(desc(n_cancelled))

# A tibble: 105 × 2
   dest  n_cancelled
   <chr>       <int>
 1 ORD           641
 2 DCA           548
 3 BOS           459
 4 RDU           367
 5 CLT           366
 6 DTW           324
 7 ATL           317
 8 IAD           309
 9 DFW           275
10 BNA           229
# ℹ 95 more rows
…
[1]  1  4 10 40

x * c(1, 2, 3)

Warning in x * c(1, 2, 3): longer object length is not a multiple of shorter
object length

[1]  1  4 30 20

Recycling rules apply to logical comparisons (==, <, <=, >, >=, !=):

flights |>
  filter(month == c(1, 2)) # not correct; Use %in%!

# A tibble: 25,977 × 19
    year month   day dep_time sched_dep_time dep_delay arr_time sched_arr_time
   <int> <int> <int>    <int>          <int>     <dbl>    <int>          <int>
 1  2013     1     1      517            515         2      830            819
 2  2013     1     1      542            540         2      923            850
 3  2013     1     1      554            600        -6      812            837
 4  2013     1     1      555            600        -5      913            854
 5  2013     1     1      557            600        -3      838            846
 6  2013     1     1      558            600        -2      849            851
 7  2013     1     1      558            600        -2      924            917
 8  2013     1     1      559            600        -1      941            910
 9  2013     1     1      559            600        -1      854            902
10  2013     1     1      600            600         0      837            825
# ℹ 25,967 more rows
# ℹ 11 more variables: arr_delay <dbl>, carrier <chr>, flight <int>,
#   tailnum <chr>, origin <chr>, dest <chr>, air_time <dbl>, distance <dbl>,
#   hour <dbl>, minute <dbl>, time_hour <dttm>

flights |>
  filter(month %in% c(1, 2))

# A tibble: 51,955 × 19
    year month   day dep_time sched_dep_time dep_delay arr_time sched_arr_time
   <int> <int> <int>    <int>          <int>     <dbl>    <int>          <int>
 1  2013     1     1      517            515         2      830            819
 2  2013     1     1      533            529         4      850            830
 3  2013     1     1      542            540         2      923            850
 4  2013     1     1      544            545        -1     1004           1022
 5  2013     1     1      554            600        -6      812            837
 6  2013     1     1      554            558        -4      740            728
 7  2013     1     1      555            600        -5      913            854
 8  2013     1     1      557            600        -3      709            723
 9  2013     1     1      557            600        -3      838            846
10  2013     1     1      558            600        -2      753            745
# ℹ 51,945 more rows
# ℹ 11 more variables: arr_delay <dbl>, carrier <chr>, flight <int>,
#   tailnum <chr>, origin <chr>, dest <chr>, air_time <dbl>, distance <dbl>,
#   hour <dbl>, minute <dbl>, time_hour <dttm>
…
 [1] 0 0 1 1 1 2 2 2 3 3

1:10 %% 3

 [1] 1 2 0 1 2 0 1 2 0 1

flights |>
  mutate(
    hour = sched_dep_time %/% 100,
    minute = sched_dep_time %% 100,
    .keep = "used"
  )

# A tibble: 336,776 × 3
   sched_dep_time  hour minute
            <int> <dbl>  <dbl>
 1            515     5     15
 2            529     5     29
 3            540     5     40
 4            545     5     45
 5            600     6      0
 6            558     5     58
 7            600     6      0
 8            600     6      0
 9            600     6      0
10            600     6      0
# ℹ 336,766 more rows
…
flights |>
  filter(n_distinct(carrier) > 2, .by = dest) |>
  summarize(
    avg_dep_delay = mean(dep_delay, na.rm = TRUE),
    n = n(),
    .by = c(dest, carrier)
  ) |>
  mutate(
    rank = min_rank(avg_dep_delay),
    .by = dest) |>
  arrange(dest, rank)

# A tibble: 237 × 5
   dest  carrier avg_dep_delay     n  rank
   <chr> <chr>           <dbl> <int> <int>
 1 ATL   9E              0.965    59     1
 2 ATL   WN              2.34     59     2
 3 ATL   MQ              9.35   2322     3
 4 ATL   DL             10.4   10571     4
 5 ATL   UA             15.8     103     5
 6 ATL   FL             18.4    2337     6
 7 ATL   EV             22.4    1764     7
 8 AUS   WN              3.84    298     1
 9 AUS   DL             10.8     357     2
10 AUS   UA             14.9     670     3
# ℹ 227 more rows
…
Minimum, maximum, and quantiles

Other locations: + min(), max() - giving largest and smallest values. + quantile() - Syntax: quantile(x, 0.25), finds x greater than 25% of the values. Note: median(x) == quantile(x, 0.5).

flights |>
  group_by(year, month, day) |>
  summarize(
    max = max(dep_delay, na.rm = TRUE),
    q95 = quantile(dep_delay, 0.95, na.rm = TRUE),
    .groups = "drop"
  )

# A tibble: 365 × 5
    year month   day   max   q95
   <int> <int> <int> <dbl> <dbl>
 1  2013     1     1   853  70.1
 2  2013     1     2   379  85  
 3  2013     1     3   291  68  
 4  2013     1     4   288  60  
 5  2013     1     5   327  41  
 6  2013     1     6   202  51  
 7  2013     1     7   366  51.6
 8  2013     1     8   188  35.3
 9  2013     1     9  1301  27.2
10  2013     1    10  1126  31  
# ℹ 355 more rows
…
`summarise()` has regrouped the output.
ℹ Summaries were computed grouped by year, month, and day.
ℹ Output is grouped by year and month.
ℹ Use `summarise(.groups = "drop_last")` to silence this message.
ℹ Use `summarise(.by = c(year, month, day))` for per-operation grouping
  (`?dplyr::dplyr_by`) instead.

# A tibble: 365 × 6
# Groups:   year, month [12]
    year month   day first_dep fifth_dep last_dep
   <int> <int> <int>     <int>     <int>    <int>
 1  2013     1     1       517       554     2356
 2  2013     1     2        42       535     2354
 3  2013     1     3        32       520     2349
 4  2013     1     4        25       531     2358
 5  2013     1     5        14       534     2357
 6  2013     1     6        16       555     2355
 7  2013     1     7        49       536     2359
 8  2013     1     8       454       544     2351
 9  2013     1     9         2       524     2252
10  2013     1    10         3       530     2320
# ℹ 355 more rows

# Note: dplyr functions use _ to separate components of functions
# Ever need [ function?

flights |> 
  group_by(year, month, day) |>
  mutate(r = min_rank(sched_dep_time)) |>
  filter(r %in% c(1, max(r)))

# A tibble: 1,195 × 20
# Groups:   year, month, day [365]
    year month   day dep_time sched_dep_time dep_delay arr_time sched_arr_time
   <int> <int> <int>    <int>          <int>     <dbl>    <int>          <int>
 1  2013     1     1      517            515         2      830            819
 2  2013     1     1     2353           2359        -6      425            445
 3  2013     1     1     2353           2359        -6      418            442
 4  2013     1     1     2356           2359        -3      425            437
 5  2013     1     2       42           2359        43      518            442
 6  2013     1     2      458            500        -2      703            650
 7  2013     1     2     2351           2359        -8      427            445
 8  2013     1     2     2354           2359        -5      413            437
 9  2013     1     3       32           2359        33      504            442
10  2013     1     3      235           2359       156      700            437
# ℹ 1,185 more rows
# ℹ 12 more variables: arr_delay <dbl>, carrier <chr>, flight <int>,
#   tailnum <chr>, origin <chr>, dest <chr>, air_time <dbl>, distance <dbl>,
#   hour <dbl>, minute <dbl>, time_hour <dttm>, r <int>
…
