Strings – R Learning
…
# Can use filter() to look at longest name
babynames |>
  filter(str_length(name) == 15) |>
  count(name, wt = n, sort = TRUE)

# A tibble: 34 × 2
   name                n
   <chr>           <int>
 1 Franciscojavier   123
 2 Christopherjohn   118
 3 Johnchristopher   118
 4 Christopherjame   108
 5 Christophermich    52
 6 Ryanchristopher    45
 7 Mariadelosangel    28
 8 Jonathanmichael    25
 9 Christianjoseph    22
10 Christopherjose    22
# ℹ 24 more rows
…
[1] "ple" "ana" "ear"

# Too short string; str_sub returns as much as possible

str_sub("a", start = -3, end = -1)

[1] "a"

babynames |>
  mutate(
    first = str_sub(name, start = 1, end = 1),
    last = str_sub(name, start = -1, end = -1)
  )

# A tibble: 1,924,665 × 7
    year sex   name          n   prop first last 
   <dbl> <chr> <chr>     <int>  <dbl> <chr> <chr>
 1  1880 F     Mary       7065 0.0724 M     y    
 2  1880 F     Anna       2604 0.0267 A     a    
 3  1880 F     Emma       2003 0.0205 E     a    
 4  1880 F     Elizabeth  1939 0.0199 E     h    
 5  1880 F     Minnie     1746 0.0179 M     e    
 6  1880 F     Margaret   1578 0.0162 M     t    
 7  1880 F     Ida        1472 0.0151 I     a    
 8  1880 F     Alice      1414 0.0145 A     e    
 9  1880 F     Bertha     1320 0.0135 B     a    
10  1880 F     Sarah      1288 0.0132 S     h    
# ℹ 1,924,655 more rows

# Example: Extracting middle letter; when even, extract left letter
babynames |>
      mutate(
        length = str_length(name),
        middle_length = if_else(
          length %% 2 == 0,
          length / 2,
          round(length / 2)),
        middle_letter = str_sub(
          name, start = middle_length, end = middle_length
        )
      )

# A tibble: 1,924,665 × 8
    year sex   name          n   prop length middle_length middle_letter
   <dbl> <chr> <chr>     <int>  <dbl>  <int>         <dbl> <chr>        
 1  1880 F     Mary       7065 0.0724      4             2 a            
 2  1880 F     Anna       2604 0.0267      4             2 n            
 3  1880 F     Emma       2003 0.0205      4             2 m            
 4  1880 F     Elizabeth  1939 0.0199      9             4 z            
 5  1880 F     Minnie     1746 0.0179      6             3 n            
 6  1880 F     Margaret   1578 0.0162      8             4 g            
 7  1880 F     Ida        1472 0.0151      3             2 d            
 8  1880 F     Alice      1414 0.0145      5             2 l            
 9  1880 F     Bertha     1320 0.0135      6             3 r            
10  1880 F     Sarah      1288 0.0132      5             2 a            
# ℹ 1,924,655 more rows
…
